…
  - `year`: Año.
  - `tipología`: Tipología del crimer cometido.
      - e.g., Delitos y faltas contra la vida, Delitos y faltas contra
        el patrimonio y el orden socioeconómico.
  - `delito`: Tipo del crimer comedito.
      - e.g., Asesinatos, Homicidios, etc.
  - `denuncias`: Denuncias.
  - `resueltos`: Casos resueltos.

<!-- end list -->

``` r
data
#> # A tibble: 560 x 5
#>     year tipologia                       delito     denuncias resueltos
#>    <int> <chr>                           <chr>          <int>     <int>
#>  1  2019 Delitos y faltas contra la vida Asesinatos       152       116
#>  2  2018 Delitos y faltas contra la vida Asesinatos       303       105
#>  3  2017 Delitos y faltas contra la vida Asesinatos       114        91
#>  4  2016 Delitos y faltas contra la vida Asesinatos       145        98
#>  5  2015 Delitos y faltas contra la vida Asesinatos       162       130
#>  6  2014 Delitos y faltas contra la vida Asesinatos       182       148
#>  7  2013 Delitos y faltas contra la vida Asesinatos       191       151
#>  8  2012 Delitos y faltas contra la vida Asesinatos       232       174
#>  9  2011 Delitos y faltas contra la vida Asesinatos       226       148
#> 10  2010 Delitos y faltas contra la vida Asesinatos       259       154
#> # ... with 550 more rows
```
…
